0.0
3.831705093383789
7.015586853027344
10.173467636108398
13.323692321777344
16.47062873840332
19.615859985351562
22.76008415222168
25.903671264648438
29.04682731628418
32.18967819213867
35.33230781555176
38.47476577758789
41.61709403991699
44.75931930541992
47.90146064758301
51.04353332519531
54.1855525970459
57.3275260925293
60.46945762634277
63.61135482788086
66.75322532653809
69.89507293701172
73.03689384460449
76.1786994934082
79.32048606872559
82.46226119995117
85.6040210723877
88.74576568603516
91.88750267028809
95.02923202514648
98.17094993591309
101.31266021728516
104.45436668395996
107.59606170654297
110.73775291442871
113.87944030761719
117.02112007141113
120.16279983520508
123.30447196960449
126.44614028930664
129.58780479431152
132.72946548461914
135.8711223602295
139.01277923583984
142.15442848205566
145.29607772827148
148.4377269744873
151.57937240600586
154.72101402282715
157.86265563964844
161.00429344177246
164.14593124389648
167.2875690460205
170.42920303344727
173.57083320617676
176.71246337890625
179.85409355163574
182.99572372436523
186.13735008239746
189.2789764404297
192.4206027984619
195.56222534179688
198.70384788513184
201.8454704284668
204.98709297180176
208.12871170043945
211.27033042907715
214.41194915771484
217.55356788635254
220.69518661499023
223.83680152893066
226.9784164428711
230.12003135681152
233.26164627075195
236.40326118469238
239.5448760986328
242.68648719787598
245.82809829711914
248.96971321105957
252.11132431030273
255.2529354095459
258.3945426940918
261.53615379333496
264.6777648925781
267.819372177124
270.9609832763672
274.1025905609131
277.244197845459
280.3858051300049
283.52741622924805
286.6690196990967
289.8106269836426
292.9522342681885
296.0938415527344
299.2354488372803
302.3770523071289
305.5186595916748
308.66026306152344
311.80186653137207
314.94347381591797